person0,0.9758850275864814,0.69,0.72,0.95,0.94,0.97,1.0,0.58
person1,0.846456502017381,0.91,0.74,0.95,0.87,0.71,0.82,0.64
person2,0.9997862592060914,0.74,0.74,0.91,0.82,0.83,0.9,0.71
person3,0.9989797222546064,0.96,0.55,1.0,1.0,0.76,1.0,0.77
person4,0.8623628842319708,0.87,0.82,0.91,0.8,0.75,1.0,0.53
person5,0.9209468673829708,0.95,0.82,0.72,0.99,0.87,1.0,0.44
person6,0.9062709002565359,0.87,0.75,0.81,1.0,0.91,0.88,0.61
person7,0.9998893374307064,0.97,0.64,1.0,0.85,0.93,0.88,0.54
person8,0.9871392903365829,0.85,0.7,0.71,0.86,0.7,1.0,0.66
person9,1.0,0.82,0.65,0.99,0.95,0.78,1.0,0.47
person10,0.9997483782516957,0.9,0.69,1.0,1.0,0.93,1.0,0.79
person11,0.8178201033351864,0.67,0.79,0.93,1.0,0.76,1.0,0.41
person12,0.9997174110977907,0.96,0.67,0.98,1.0,0.76,0.96,0.53
person13,0.9999013664483948,0.78,0.7,0.99,0.99,0.91,1.0,0.6
person14,0.809865491760519,0.9,0.58,0.83,0.82,0.91,1.0,0.55
person15,0.8226676153119239,0.71,0.78,0.96,1.0,0.83,0.91,0.6
person16,0.8506510665665213,0.97,0.6,0.77,1.0,0.77,0.84,0.71
person17,0.9980528068549899,0.78,0.74,0.72,1.0,1.0,0.9,0.76
person18,0.8303088083962042,0.88,0.83,0.98,0.89,0.84,0.89,0.69
person19,0.9927839346716164,0.61,0.77,0.9,1.0,0.9,0.93,0.67
person20,0.9986110103156266,0.65,0.58,1.0,0.9,0.83,0.81,0.55
person21,0.9828276221250212,0.73,0.64,1.0,1.0,1.0,0.92,0.46
person22,0.8100699145102328,0.71,0.57,0.99,1.0,1.0,0.97,0.68
person23,0.925707749349019,0.81,0.61,0.82,1.0,0.81,0.93,0.62
person24,0.9999555809895027,0.9,0.69,1.0,0.82,1.0,0.9,0.55
person25,0.8856098943242287,0.63,0.63,1.0,1.0,1.0,0.95,0.53
person26,0.8385842767679201,0.61,0.78,0.71,1.0,0.95,1.0,0.75
person27,0.8892795014482893,0.88,0.64,0.9,1.0,0.92,1.0,0.46
person28,0.9970545750630764,0.84,0.54,0.8,0.84,0.95,1.0,0.65
person29,0.8553228768753429,0.61,0.65,0.7,1.0,0.77,1.0,0.66
person30,0.9971702488327179,0.78,0.81,1.0,1.0,1.0,1.0,0.67
person31,0.9088716872125941,0.94,0.77,0.99,0.9,0.74,0.85,0.67
person32,0.9996750616833852,0.8,0.8,0.97,0.88,0.89,0.95,0.77
person33,0.9609206513184327,0.72,0.71,0.81,0.92,0.92,0.91,0.53
person34,0.8366833218198246,0.82,0.77,0.86,1.0,1.0,1.0,0.47
person35,0.9988226973649339,0.75,0.63,0.93,0.8,1.0,0.87,0.65
person36,0.9998175190853715,0.63,0.5,0.97,1.0,1.0,1.0,0.76
person37,0.8753092172279321,0.74,0.82,0.87,1.0,0.7,1.0,0.72
person38,0.8770971942150326,0.73,0.58,0.99,1.0,0.99,0.89,0.55
person39,0.8176284284111761,0.88,0.72,1.0,1.0,0.84,1.0,0.54
person40,0.9997484014211357,0.83,0.62,0.95,1.0,0.86,1.0,0.72
person41,0.9997379439842277,0.95,0.66,0.8,0.91,1.0,1.0,0.68
person42,0.999450775562069,0.86,0.57,0.88,0.94,1.0,0.86,0.43
person43,0.9995874554762,0.79,0.7,0.99,0.99,0.91,1.0,0.6
person44,0.990721754647647,0.68,0.77,1.0,1.0,1.0,0.84,0.74
person45,0.8942537734339088,0.76,0.83,1.0,0.81,0.88,0.96,0.65
person46,0.859495994983929,0.97,0.59,0.77,1.0,0.76,0.83,0.7
person47,0.9998272310454492,0.8,0.76,0.73,1.0,1.0,0.92,0.77
person48,0.9361443809357585,0.6,0.56,0.7,1.0,0.96,1.0,0.41
person49,0.967611777231656,0.92,0.67,0.81,1.0,0.8,0.83,0.57
person50,0.5357591439988918,0.52,0.04,0.7,0.52,0.53,0.29,0.41
person51,0.7198754630850283,0.54,0.37,0.82,0.37,0.7,0.25,0.1
person52,0.5770326054286684,0.54,0.32,0.9,0.62,0.5,0.17,0.19
person53,0.6035289408489324,0.75,0.26,0.75,0.66,0.67,0.27,0.47
person54,0.8040953268400831,0.62,0.3,0.74,0.37,0.55,0.09,0.43
person55,0.5046617668792972,0.62,0.09,0.66,0.62,0.58,0.26,0.11
person56,0.4684288714122935,0.55,0.14,0.88,0.38,0.47,0.31,0.11
person57,0.6239468443369836,0.44,0.35,0.88,0.51,0.52,0.15,0.49
person58,0.4907834469699451,0.5,0.36,0.61,0.41,0.77,0.12,0.22
person59,0.5826136809877392,0.45,0.05,0.62,0.6,0.7,0.37,0.26
person60,0.6177872483813793,0.49,0.25,0.77,0.48,0.74,0.36,0.37
person61,0.710857790830109,0.59,0.14,0.79,0.42,0.47,0.22,0.16
person62,0.6154562514306426,0.47,0.15,0.56,0.54,0.72,0.24,0.12
person63,0.6000856686168164,0.5,0.09,0.7,0.41,0.5,0.21,0.22
person64,0.6844529617964755,0.78,0.32,0.66,0.54,0.58,0.01,0.19
person65,0.7270532006273196,0.58,0.26,0.51,0.58,0.75,0.1,0.47
person66,0.4135696347851492,0.4,0.24,0.84,0.63,0.57,0.27,0.37
person67,0.6052072251876334,0.54,0.17,0.5,0.61,0.74,0.17,0.18
person68,0.7607552781032687,0.63,0.39,0.89,0.55,0.8,0.4,0.36
person69,0.5998022954380309,0.57,0.24,0.53,0.32,0.49,0.28,0.37
person70,0.6515930631102765,0.78,0.0,0.81,0.37,0.49,0.01,0.26
person71,0.45848116170424946,0.44,0.19,0.52,0.67,0.52,0.36,0.4
person72,0.6334362647150843,0.77,0.29,0.57,0.45,0.47,0.25,0.42
person73,0.4375111178937736,0.41,0.11,0.53,0.32,0.53,0.04,0.13
person74,0.5689498739518386,0.49,0.32,0.5,0.64,0.57,0.25,0.29
person75,0.7114888031881695,0.43,0.18,0.55,0.42,0.67,0.14,0.31
person76,0.7266382521597815,0.58,0.28,0.77,0.41,0.61,0.21,0.14
person77,0.4435567652409857,0.44,0.27,0.68,0.51,0.44,0.35,0.48
person78,0.5865358083833708,0.74,0.34,0.7,0.66,0.75,0.22,0.47
person79,0.7233577392605124,0.45,0.23,0.73,0.6,0.49,0.08,0.25
person80,0.5593315533062887,0.61,0.13,0.78,0.6,0.62,0.38,0.5
person81,0.4822394921649339,0.57,0.0,0.85,0.41,0.74,0.28,0.14
person82,0.6665236138396557,0.6,0.38,0.55,0.67,0.55,0.23,0.25
person83,0.40415318800836936,0.51,0.02,0.51,0.42,0.44,0.03,0.24
person84,0.7479610988738604,0.57,0.25,0.69,0.32,0.5,0.04,0.37
person85,0.6362933498865049,0.43,0.3,0.87,0.42,0.79,0.07,0.32
person86,0.6239433922664077,0.7,0.29,0.63,0.53,0.63,0.06,0.26
person87,0.7395438067735352,0.62,0.13,0.66,0.69,0.7,0.33,0.26
person88,0.7741872760165182,0.78,0.24,0.89,0.69,0.65,0.0,0.1
person89,0.697148162128905,0.52,0.11,0.68,0.67,0.76,0.03,0.32
person90,0.4843213820349648,0.42,0.18,0.7,0.41,0.67,0.29,0.3
person91,0.6135461449417878,0.46,0.01,0.67,0.7,0.75,0.1,0.43
person92,0.5736885891847608,0.77,0.04,0.86,0.44,0.61,0.13,0.41
person93,0.5229198286362723,0.5,0.09,0.7,0.41,0.5,0.21,0.22
person94,0.502923925263464,0.57,0.11,0.84,0.32,0.76,0.19,0.37
person95,0.6534091283208527,0.63,0.31,0.56,0.63,0.8,0.15,0.12
person96,0.4551600634193832,0.79,0.23,0.83,0.63,0.57,0.27,0.36
person97,0.5835396499635946,0.56,0.19,0.52,0.63,0.76,0.19,0.2
person98,0.47622251599055543,0.76,0.11,0.61,0.67,0.52,0.12,0.48
person99,0.4743710495989654,0.47,0.15,0.83,0.63,0.8,0.19,0.28
person100,0.7251249316618136,0.55,0.17,0.58,0.54,0.66,0.17,0.43
person101,0.6348295895187884,0.55,0.31,0.64,0.39,0.64,0.07,0.12
person102,0.44524161294078524,0.51,0.03,0.71,0.58,0.6,0.38,0.16
person103,0.6674284432939709,0.65,0.36,0.77,0.56,0.77,0.28,0.37
person104,0.5492134551818907,0.51,0.35,0.53,0.67,0.6,0.28,0.32
person105,0.6666898585693195,0.72,0.07,0.84,0.31,0.56,0.03,0.2
person106,0.5761647194700663,0.41,0.11,0.61,0.65,0.45,0.04,0.38
person107,0.7147286186221002,0.69,0.13,0.54,0.37,0.7,0.21,0.34
person108,0.5682276619527199,0.71,0.3,0.66,0.62,0.72,0.18,0.43
person109,0.5436825358094403,0.59,0.38,0.87,0.34,0.63,0.22,0.39
person110,0.6312944452847652,0.62,0.13,0.79,0.61,0.63,0.39,0.11
person111,0.8347898256619103,0.53,0.36,0.81,0.36,0.69,0.24,0.49
person112,0.6277406435805207,0.58,0.36,0.53,0.65,0.53,0.2,0.22
person113,0.5072282899468469,0.59,0.11,0.6,0.5,0.52,0.11,0.32
person114,0.6232832698641275,0.43,0.11,0.55,0.58,0.76,0.3,0.24
person115,0.4325457070284199,0.56,0.03,0.6,0.55,0.52,0.19,0.45
person116,0.621026271969403,0.77,0.37,0.71,0.61,0.7,0.14,0.34
person117,0.49517000376848824,0.72,0.23,0.76,0.39,0.8,0.03,0.36
person118,0.5934485759593074,0.58,0.04,0.69,0.49,0.45,0.21,0.3
person119,0.7297671962824359,0.5,0.1,0.67,0.66,0.75,0.02,0.31
person120,0.6656684189893707,0.67,0.03,0.55,0.66,0.52,0.14,0.15
person121,0.4933313839386175,0.66,0.21,0.86,0.49,0.54,0.29,0.22
person122,0.4489552176036094,0.59,0.26,0.68,0.66,0.43,0.35,0.23
person123,0.5333899300935302,0.42,0.01,0.62,0.33,0.42,0.13,0.15
person124,0.6070180899847462,0.68,0.22,0.55,0.43,0.47,0.3,0.48
person125,0.6686616309440462,0.6,0.28,0.53,0.59,0.77,0.12,0.49
person126,0.6864647415520563,0.71,0.15,0.75,0.54,0.48,0.18,0.27
person127,0.5406524311620342,0.5,0.12,0.86,0.57,0.7,0.13,0.14
person128,0.5987914555717483,0.8,0.15,0.65,0.31,0.56,0.16,0.12
person129,0.7296140802578629,0.7,0.37,0.66,0.45,0.62,0.01,0.1
person130,0.46223784225181475,0.64,0.26,0.67,0.63,0.75,0.26,0.12
person131,0.6388931599118723,0.59,0.34,0.67,0.42,0.67,0.1,0.15
person132,0.4810973869121666,0.57,0.09,0.77,0.64,0.66,0.04,0.21
person133,0.40278941574845484,0.41,0.12,0.53,0.32,0.53,0.04,0.13
person134,0.487103338837858,0.46,0.29,0.87,0.61,0.54,0.22,0.26
person135,0.5211469883274532,0.53,0.28,0.65,0.52,0.77,0.24,0.41
person136,0.7306077197115459,0.57,0.27,0.76,0.4,0.6,0.19,0.13
person137,0.41521668594942,0.47,0.3,0.72,0.54,0.48,0.39,0.12
person138,0.4661820879662044,0.59,0.19,0.55,0.5,0.6,0.06,0.31
person139,0.6182959077729674,0.66,0.04,0.54,0.41,0.7,0.29,0.46
person140,0.5727568845132603,0.55,0.06,0.72,0.54,0.56,0.32,0.44
person141,0.6625327567699284,0.8,0.23,0.68,0.63,0.56,0.11,0.36
person142,0.5428206210695611,0.48,0.26,0.83,0.55,0.43,0.1,0.12
person143,0.4683518130447211,0.59,0.11,0.6,0.51,0.52,0.11,0.32
person144,0.7666703697880052,0.62,0.3,0.74,0.37,0.55,0.09,0.42
person145,0.5120152874642555,0.61,0.08,0.65,0.6,0.57,0.24,0.49
person146,0.6304197842306051,0.77,0.36,0.7,0.6,0.69,0.13,0.33
person147,0.5131744873211853,0.73,0.24,0.77,0.4,0.42,0.04,0.38
person148,0.7184842124114054,0.7,0.16,0.81,0.61,0.57,0.33,0.43
person149,0.6415041231091456,0.41,0.0,0.57,0.56,0.65,0.32,0.21
person150,0.9999357304820741,0.77,0.85,0.99,0.61,0.9,0.83,0.66
person151,0.9185202133052828,0.69,0.71,0.64,0.66,0.87,1.0,0.82
person152,0.8304792329332595,0.57,0.98,0.69,0.65,0.87,1.0,0.94
person153,0.9791050370434309,0.62,0.84,0.93,0.83,0.84,1.0,0.84
person154,0.8313890463913353,0.41,0.8,0.84,0.74,0.92,1.0,0.86
person155,0.80154389604949,0.53,0.91,0.89,0.98,0.75,0.93,0.83
person156,0.9364314138177557,0.55,0.88,0.85,0.72,0.84,1.0,0.68
person157,0.7833501105108799,0.75,0.61,0.78,0.64,0.69,1.0,0.72
person158,0.7246744828137616,0.68,0.93,0.88,0.69,0.74,0.89,0.89
person159,0.9971420155471082,0.49,0.94,0.87,0.61,0.87,1.0,0.94
person160,0.9978113623151579,0.44,0.66,0.95,0.68,0.71,1.0,0.73
person161,0.9998484262306563,0.66,0.88,0.69,0.63,0.64,1.0,0.79
person162,0.8181073352663552,0.63,0.8,0.61,0.72,0.69,1.0,0.61
person163,0.7788650199369636,0.57,0.67,0.68,0.77,0.67,0.89,0.78
person164,0.8960295545100019,0.73,0.82,0.61,0.65,0.95,0.93,0.78
person165,0.7313109061841191,0.78,0.67,0.85,0.82,0.92,0.89,0.67
person166,0.8597676763353207,0.51,0.98,0.7,0.68,0.94,0.87,0.64
person167,0.8874812978376738,0.77,0.83,0.88,0.66,0.91,1.0,0.74
person168,0.8894503979009057,0.56,0.96,0.62,0.96,0.77,1.0,0.77
person169,0.8286917327509393,0.8,0.74,0.99,0.93,0.66,1.0,0.85
person170,0.8640951865565276,0.48,0.82,0.84,0.73,0.86,1.0,0.78
person171,0.8968232934245334,0.79,0.93,0.94,0.76,0.69,0.91,0.93
person172,0.7044155579856732,0.64,0.95,0.92,0.73,0.84,1.0,0.62
person173,0.9997127047576775,0.8,0.69,0.99,0.6,0.7,1.0,0.61
person174,0.9992393414314962,0.57,0.82,0.71,0.9,0.94,1.0,0.62
person175,0.9431416053727784,0.42,1.0,0.69,0.86,0.84,1.0,0.71
person176,0.9995422603503679,0.44,0.62,0.88,0.61,0.98,1.0,0.98
person177,0.8682663230350778,0.55,0.93,0.78,0.84,0.61,1.0,0.92
person178,0.9996848573468988,0.77,0.92,0.73,0.78,0.72,1.0,0.99
person179,0.9540473672857601,0.6,0.73,0.87,0.72,0.66,0.99,0.65
person180,0.8340209145396942,0.45,0.94,0.67,0.7,0.99,0.92,0.75
person181,0.999488077044002,0.72,0.74,0.68,0.69,0.91,1.0,0.85
person182,0.9169196565880555,0.62,0.64,0.74,0.71,0.92,0.83,1.0
person183,0.7514141713211338,0.78,1.0,0.69,0.99,0.61,0.9,1.0
person184,0.8181639633690632,0.76,0.74,0.79,0.68,0.87,1.0,0.81
person185,0.960096391282109,0.74,0.72,0.69,0.79,0.96,1.0,0.64
person186,0.7254451549461803,0.7,0.63,0.6,0.87,1.0,1.0,0.83
person187,0.9465318008644061,0.53,0.79,0.96,0.81,0.87,0.85,0.9
person188,0.9998460753358894,0.56,0.82,0.76,0.97,0.62,1.0,0.77
person189,0.7277419006842241,0.55,0.61,0.94,0.68,0.93,1.0,0.6
person190,0.9562681310370172,0.77,0.99,0.88,0.61,0.64,1.0,0.66
person191,0.8805752656625653,0.54,0.75,0.97,0.9,0.92,0.93,0.67
person192,0.7368820857903334,0.53,0.7,0.91,0.62,0.98,1.0,0.9
person193,0.8477807333085061,0.57,0.67,0.68,0.78,0.67,0.89,0.78
person194,0.7754066714498635,0.51,0.61,0.79,0.84,0.73,1.0,0.96
person195,0.8069472246226392,0.43,0.72,0.9,0.87,0.97,0.94,0.72
person196,0.7968638325092913,0.5,0.97,0.7,0.67,0.94,0.86,0.64
person197,0.8855079873578112,0.79,0.84,0.9,0.67,0.93,1.0,0.76
person198,0.987963600771699,0.68,0.68,0.74,0.68,0.89,1.0,0.89
person199,0.9999094220336763,0.7,0.64,0.9,0.83,0.97,1.0,0.76
person200,0.5102949922742775,0.05,0.09,0.14,0.08,0.13,0.48,0.92
person201,0.5850744924338661,0.1,0.27,0.03,0.1,0.27,0.33,0.9
person202,0.41694465195257524,0.15,0.03,0.32,0.1,0.0,0.58,0.86
person203,0.6578800844359978,0.39,0.4,0.0,0.0,0.0,0.22,0.63
person204,0.5152185213500131,0.3,0.03,0.16,0.18,0.0,0.33,0.86
person205,0.48385303739745295,0.35,0.19,0.04,0.18,0.03,0.58,0.82
person206,0.6025130055117501,0.31,0.28,0.24,0.11,0.07,0.34,0.71
person207,0.4797465322299075,0.24,0.33,0.02,0.0,0.09,0.47,0.96
person208,0.33370108065965404,0.34,0.15,0.35,0.06,0.26,0.37,0.98
person209,0.3066802371674872,0.33,0.26,0.19,0.01,0.0,0.56,0.89
person210,0.6481500503192517,0.01,0.06,0.1,0.05,0.09,0.44,0.89
person211,0.6348360308442035,0.15,0.32,0.09,0.15,0.0,0.38,0.95
person212,0.45284159424677606,0.07,0.36,0.25,0.03,0.0,0.5,0.79
person213,0.49019578814252784,0.14,0.15,0.15,0.06,0.07,0.37,0.78
person214,0.6145180682020145,0.07,0.19,0.32,0.0,0.07,0.5,0.62
person215,0.4128363342411878,0.31,0.15,0.4,0.14,0.0,0.54,0.78
person216,0.42709789573248785,0.16,0.13,0.1,0.0,0.0,0.59,0.96
person217,0.5595746429500463,0.34,0.03,0.11,0.1,0.19,0.57,0.66
person218,0.48285034462856824,0.08,0.28,0.09,0.19,0.0,0.51,0.71
person219,0.47087729800182976,0.05,0.38,0.3,0.13,0.06,0.28,0.61
person220,0.4742279849721084,0.3,0.35,0.39,0.0,0.0,0.33,0.78
person221,0.4980591265945772,0.0,0.17,0.33,0.0,0.17,0.23,0.8
person222,0.5075066485389178,0.38,0.26,0.15,0.0,0.22,0.41,0.69
person223,0.27461267530778627,0.05,0.05,0.06,0.0,0.0,0.28,0.68
person224,0.34085833894434353,0.17,0.3,0.02,0.05,0.18,0.2,0.73
person225,0.6232170229544653,0.15,0.4,0.24,0.0,0.24,0.38,0.63
person226,0.5630721709653391,0.34,0.31,0.27,0.14,0.11,0.37,0.74
person227,0.36313913323174196,0.24,0.33,0.01,0.0,0.08,0.47,0.96
person228,0.569244429312876,0.19,0.39,0.2,0.0,0.11,0.22,0.82
person229,0.34663396103910077,0.33,0.25,0.18,0.01,0.0,0.56,0.88
person230,0.3642258659650336,0.13,0.18,0.23,0.17,0.22,0.56,0.61
person231,0.5787767146540245,0.14,0.3,0.07,0.13,0.3,0.37,0.93
person232,0.5234031519457696,0.2,0.09,0.38,0.16,0.05,0.23,0.92
person233,0.4375484665773624,0.15,0.16,0.17,0.07,0.08,0.38,0.79
person234,0.36696623478000906,0.25,0.37,0.1,0.13,0.25,0.28,0.8
person235,0.6129224002750571,0.15,0.0,0.25,0.0,0.24,0.38,0.63
person236,0.342951466497568,0.06,0.03,0.39,0.26,0.23,0.49,0.86
person237,0.6104359355451683,0.02,0.11,0.19,0.18,0.26,0.25,0.74
person238,0.2791615586245677,0.22,0.03,0.23,0.0,0.15,0.25,0.86
person239,0.4137750373826481,0.4,0.33,0.25,0.08,0.0,0.23,0.96
person240,0.6108695491885984,0.34,0.39,0.03,0.0,0.02,0.37,0.82
person241,0.5511342773812108,0.03,0.19,0.36,0.02,0.19,0.26,0.82
person242,0.4452388314624525,0.37,0.26,0.14,0.0,0.22,0.4,0.69
person243,0.44738118248898173,0.14,0.15,0.15,0.06,0.07,0.37,0.78
person244,0.41692532310228525,0.25,0.38,0.1,0.13,0.26,0.28,0.81
person245,0.36171823825748906,0.36,0.2,0.05,0.19,0.04,0.59,0.83
person246,0.41038692617201983,0.16,0.12,0.09,0.0,0.0,0.59,0.95
person247,0.4990614865529305,0.36,0.05,0.13,0.12,0.2,0.59,0.68
person248,0.5576181066022338,0.2,0.0,0.21,0.0,0.12,0.23,0.83
person249,0.38418170147242636,0.36,0.28,0.21,0.03,0.0,0.59,0.91
person250,0.3079274640811768,0.07,0.12,0.16,0.11,0.16,0.5,0.95
person251,0.4914092177658515,0.12,0.28,0.05,0.11,0.28,0.35,0.91
person252,0.5341038014600803,0.11,0.4,0.29,0.07,0.0,0.54,0.83
person253,0.46732856280618934,0.29,0.3,0.3,0.21,0.21,0.52,0.93
person254,0.4364627375432023,0.2,0.32,0.05,0.07,0.2,0.23,0.75
person255,0.5183582760302875,0.04,0.29,0.13,0.28,0.12,0.27,0.92
person256,0.5474975379818698,0.18,0.14,0.11,0.0,0.0,0.21,0.97
person257,0.3820148383377904,0.1,0.18,0.27,0.25,0.0,0.33,0.81
person258,0.6324883278689893,0.15,0.35,0.16,0.27,0.07,0.58,0.78
person259,0.49037591163583194,0.07,0.4,0.32,0.15,0.08,0.3,0.63
person260,0.35146527994942345,0.14,0.19,0.24,0.18,0.23,0.57,0.62
person261,0.5413317554006655,0.09,0.25,0.02,0.09,0.25,0.32,0.88
person262,0.5442399113655059,0.18,0.07,0.35,0.14,0.02,0.21,0.9
person263,0.42660313667958116,0.23,0.24,0.25,0.15,0.16,0.46,0.87
person264,0.6095774824317731,0.11,0.24,0.37,0.0,0.12,0.54,0.67
person265,0.3138564659775807,0.28,0.13,0.38,0.12,0.0,0.51,0.76
person266,0.39764828798097634,0.14,0.1,0.07,0.0,0.0,0.57,0.93
person267,0.29924685935160167,0.12,0.2,0.29,0.28,0.0,0.35,0.83
person268,0.5486149284081304,0.02,0.23,0.03,0.14,0.0,0.45,0.66
person269,0.2993709325273427,0.39,0.31,0.24,0.06,0.0,0.22,0.94
person270,0.3775448380827731,0.19,0.24,0.28,0.23,0.27,0.22,0.67
person271,0.36490901786731283,0.22,0.39,0.15,0.22,0.0,0.45,0.62
person272,0.48416440455594,0.19,0.08,0.36,0.15,0.03,0.22,0.91
person273,0.3278490586626821,0.06,0.07,0.08,0.0,0.0,0.29,0.7
person274,0.5061416277315517,0.36,0.08,0.21,0.24,0.0,0.39,0.91
person275,0.43142471459591514,0.32,0.17,0.02,0.16,0.01,0.55,0.8
person276,0.4171713722018257,0.07,0.04,0.0,0.27,0.23,0.5,0.87
person277,0.4392322047105129,0.3,0.38,0.07,0.06,0.14,0.53,0.61
person278,0.24698313148498477,0.24,0.05,0.25,0.0,0.16,0.27,0.88
person279,0.5426633745601595,0.18,0.11,0.03,0.26,0.19,0.41,0.74
person280,0.4874625908653099,0.16,0.21,0.25,0.2,0.24,0.59,0.64
person281,0.5452078677538201,0.15,0.31,0.08,0.15,0.0,0.38,0.94
person282,0.5445943113034265,0.17,0.06,0.34,0.13,0.01,0.2,0.89
person283,0.4927536210633969,0.05,0.06,0.06,0.0,0.0,0.28,0.69
person284,0.29781872536067167,0.14,0.27,0.39,0.02,0.15,0.57,0.7
person285,0.4402547363504037,0.25,0.1,0.34,0.09,0.0,0.48,0.73
person286,0.5376178140202607,0.33,0.29,0.26,0.13,0.09,0.36,0.72
person287,0.38020943585053635,0.27,0.36,0.05,0.03,0.12,0.5,0.99
person288,0.5213031766557239,0.03,0.23,0.04,0.15,0.0,0.46,0.66
person289,0.5151407624886134,0.14,0.06,0.39,0.22,0.14,0.37,0.69
person290,0.2282908902162689,0.07,0.12,0.17,0.11,0.16,0.5,0.95
person291,0.4438313333421094,0.36,0.13,0.29,0.0,0.13,0.59,0.76
person292,0.5094819208866661,0.08,0.36,0.25,0.04,0.0,0.51,0.79
person293,0.5067534051945602,0.24,0.24,0.25,0.15,0.16,0.47,0.87
person294,0.4759517886838783,0.3,0.02,0.15,0.18,0.0,0.33,0.85
person295,0.4049246829848717,0.33,0.18,0.02,0.17,0.02,0.56,0.81
person296,0.4454831565951019,0.13,0.1,0.06,0.0,0.29,0.56,0.93
person297,0.3354013391915275,0.13,0.22,0.31,0.29,0.0,0.36,0.85
person298,0.649446359169723,0.14,0.35,0.16,0.26,0.07,0.57,0.78
person299,0.6425038433638903,0.29,0.22,0.14,0.0,0.29,0.52,0.85
person300,0.5887803318775215,0.36,0.0,0.05,0.0,0.04,0.39,0.83
person301,0.4970820188577206,0.33,0.1,0.27,0.0,0.1,0.56,0.73
person302,0.34897021613232715,0.33,0.21,0.1,0.28,0.17,0.36,0.64
person303,0.5005831281010662,0.3,0.31,0.32,0.22,0.23,0.53,0.94
person304,0.5299965925223676,0.38,0.11,0.23,0.26,0.0,0.41,0.94
person305,0.641497907580784,0.21,0.06,0.31,0.05,0.3,0.44,0.69
person306,0.6034099248187115,0.3,0.27,0.23,0.1,0.07,0.33,0.7
person307,0.3933532643048054,0.15,0.24,0.33,0.0,0.0,0.38,0.87
person308,0.65115565330816,0.2,0.01,0.21,0.0,0.12,0.23,0.84
person309,0.21274404849598694,0.33,0.25,0.18,0.01,0.0,0.56,0.88
person310,0.44522820136508345,0.17,0.22,0.26,0.21,0.25,0.6,0.65
person311,0.5201789378973649,0.1,0.27,0.03,0.1,0.27,0.33,0.9
person312,0.49646030175216604,0.15,0.03,0.32,0.11,0.0,0.58,0.86
person313,0.4475726887367561,0.13,0.14,0.14,0.05,0.06,0.36,0.77
person314,0.533239746953519,0.01,0.13,0.26,0.28,0.01,0.44,0.96
person315,0.4795489274820263,0.38,0.22,0.07,0.22,0.06,0.21,0.85
person316,0.3566657845067167,0.0,0.37,0.33,0.2,0.17,0.43,0.8
person317,0.5950116033829564,0.37,0.06,0.14,0.13,0.22,0.2,0.69
person318,0.39523155436046,0.23,0.04,0.24,0.0,0.15,0.26,0.87
person319,0.481072581659009,0.12,0.05,0.37,0.2,0.13,0.35,0.68
person320,0.5368497935397363,0.32,0.37,0.01,0.0,0.01,0.35,0.8
person321,0.5884318694388735,0.15,0.32,0.09,0.15,0.0,0.38,0.95
person322,0.3917611189171942,0.3,0.18,0.07,0.25,0.14,0.33,0.61
person323,0.4812376759844299,0.16,0.16,0.17,0.07,0.08,0.39,0.79
person324,0.4877113254176515,0.0,0.13,0.26,0.28,0.01,0.43,0.96
person325,0.35087633003221885,0.3,0.15,0.39,0.14,0.0,0.53,0.78
person326,0.3176347866380316,0.04,0.01,0.37,0.24,0.21,0.47,0.84
person327,0.5925529836302796,0.07,0.16,0.24,0.23,0.0,0.3,0.79
person328,0.6538819147040633,0.18,0.39,0.2,0.0,0.11,0.21,0.82
person329,0.4524633796423853,0.12,0.04,0.37,0.19,0.12,0.35,0.67
person330,0.2265256694004334,0.05,0.09,0.14,0.09,0.13,0.48,0.92
person331,0.4662092678439976,0.37,0.13,0.3,0.0,0.13,0.6,0.76
person332,0.492880658340123,0.38,0.27,0.16,0.0,0.23,0.41,0.7
person333,0.44439216382207825,0.07,0.07,0.08,0.0,0.0,0.3,0.7
person334,0.484077177801672,0.33,0.05,0.18,0.21,0.0,0.36,0.88
person335,0.46421979462093954,0.02,0.27,0.11,0.26,0.11,0.25,0.9
person336,0.4175513857935762,0.06,0.02,0.39,0.25,0.22,0.49,0.85
person337,0.5011840854319001,0.33,0.02,0.1,0.09,0.18,0.56,0.65
person338,0.5180631803271161,0.08,0.29,0.09,0.2,0.01,0.51,0.72
person339,0.3429460887136634,0.39,0.32,0.24,0.07,0.0,0.22,0.95
person340,0.29340589932647315,0.1,0.15,0.19,0.14,0.18,0.53,0.98
person341,0.5696270866449319,0.38,0.14,0.31,0.0,0.14,0.21,0.77
person342,0.463896567814738,0.04,0.33,0.22,0.0,0.29,0.47,0.76
person343,0.48072093898903867,0.13,0.14,0.15,0.05,0.06,0.36,0.77
person344,0.419285167736902,0.19,0.32,0.04,0.07,0.2,0.22,0.75
person345,0.38871939264186056,0.03,0.27,0.12,0.27,0.11,0.26,0.9
person346,0.3345662622756376,0.4,0.36,0.33,0.19,0.16,0.43,0.79
person347,0.49419088169267755,0.39,0.07,0.16,0.15,0.23,0.22,0.7
person348,0.3669268526962461,0.35,0.16,0.36,0.07,0.27,0.38,0.99
person349,0.30188880620019537,0.03,0.35,0.28,0.11,0.03,0.26,0.98
person350,0.6532615661392742,0.34,0.14,0.79,0.3,0.31,0.26,0.57
person351,0.5530587233796881,0.59,0.16,0.84,0.32,0.48,0.06,0.35
person352,0.38824611985939683,0.44,0.19,0.83,0.32,0.68,0.22,0.51
person353,0.4500400533333671,0.48,0.21,0.61,0.53,0.45,0.16,0.48
person354,0.5188543465836278,0.59,0.32,0.52,0.4,0.33,0.22,0.51
person355,0.6275007028019298,0.44,0.2,0.76,0.4,0.36,0.23,0.27
person356,0.6079753772660249,0.6,0.32,0.9,0.33,0.65,0.12,0.36
person357,0.3954710704443022,0.33,0.22,0.82,0.62,0.3,0.2,0.41
person358,0.6249554407647482,0.63,0.3,0.87,0.68,0.55,0.02,0.23
person359,0.4690358943909908,0.42,0.47,0.79,0.63,0.48,0.1,0.34
person360,0.6745258321267732,0.3,0.35,0.86,0.67,0.52,0.33,0.54
person361,0.5270181962394279,0.64,0.32,0.81,0.37,0.65,0.04,0.4
person362,0.44113453988497914,0.36,0.41,0.5,0.65,0.5,0.29,0.44
person363,0.32932794761141065,0.63,0.43,0.55,0.68,0.68,0.1,0.23
person364,0.5023575388318047,0.36,0.35,0.83,0.56,0.36,0.14,0.27
person365,0.43324051737817526,0.4,0.36,0.6,0.36,0.53,0.07,0.23
person366,0.5656104404640675,0.45,0.42,0.86,0.58,0.35,0.08,0.21
person367,0.44180519104118615,0.43,0.43,0.84,0.32,0.52,0.23,0.51
person368,0.5316750899824138,0.37,0.33,0.74,0.41,0.58,0.29,0.36
person369,0.6910952027638215,0.54,0.26,0.71,0.35,0.67,0.01,0.46
person370,0.3814269165998158,0.59,0.1,0.51,0.56,0.67,0.38,0.43
person371,0.5991141693041027,0.49,0.38,0.54,0.62,0.3,0.17,0.25
person372,0.5207818245048838,0.67,0.16,0.51,0.55,0.65,0.3,0.34
person373,0.5933425251675034,0.54,0.46,0.78,0.59,0.31,0.33,0.53
person374,0.6649281193106135,0.46,0.35,0.68,0.67,0.35,0.39,0.38
person375,1.0,0.64,0.28,0.64,0.61,0.45,0.11,0.48
person376,0.5465120669006845,0.63,0.46,0.79,0.36,0.39,0.02,0.39
person377,0.548276489056065,0.33,0.13,0.62,0.62,0.62,0.01,0.41
person378,0.36423723547315867,0.48,0.29,0.56,0.52,0.53,0.11,0.47
person379,0.5585700627495365,0.42,0.26,0.5,0.63,0.67,0.21,0.33
person380,0.36483832353403833,0.42,0.23,0.88,0.39,0.4,0.35,0.26
person381,0.5704707027835927,0.63,0.19,0.87,0.35,0.52,0.1,0.38
person382,0.5180341920382955,0.49,0.25,0.89,0.38,0.33,0.28,0.57
person383,0.5416771881849907,0.64,0.37,0.77,0.69,0.62,0.32,0.24
person384,0.5053638677187152,0.54,0.27,0.86,0.35,0.68,0.17,0.45
person385,0.42199883930805177,0.64,0.4,0.57,0.61,0.57,0.04,0.48
person386,0.3857928186361263,0.35,0.48,0.65,0.48,0.41,0.28,0.51
person387,0.5317134903404642,0.51,0.39,0.59,0.4,0.48,0.38,0.59
person388,0.5069464188428217,0.51,0.18,0.75,0.56,0.43,0.3,0.51
person389,0.5055601269760286,0.49,0.13,0.86,0.7,0.54,0.17,0.41
person390,0.6290818584912375,0.63,0.28,0.79,0.6,0.45,0.26,0.47
person391,0.4316549887727496,0.52,0.2,0.68,0.64,0.53,0.31,0.27
person392,0.41254734993565856,0.66,0.31,0.8,0.55,0.39,0.19,0.34
person393,0.359853551832691,0.63,0.44,0.56,0.68,0.68,0.1,0.23
person394,0.6762236587206407,0.54,0.13,0.62,0.35,0.54,0.33,0.46
person395,0.45026711099325717,0.45,0.41,0.65,0.41,0.58,0.12,0.28
person396,0.5646108076375859,0.45,0.42,0.85,0.57,0.35,0.08,0.2
person397,0.4221258348613497,0.45,0.45,0.85,0.34,0.54,0.24,0.53
person398,0.600433151647887,0.49,0.45,0.86,0.54,0.3,0.01,0.48
person399,0.6337866089882352,0.45,0.17,0.61,0.65,0.58,0.32,0.36
person400,0.5700246348858939,0.36,0.27,0.68,0.33,0.44,0.15,0.6
person401,0.4156766344418411,0.61,0.49,0.65,0.33,0.42,0.28,0.36
person402,0.6482194708971898,0.4,0.29,0.65,0.69,0.38,0.03,0.48
person403,0.4117181729712902,0.38,0.3,0.62,0.43,0.55,0.17,0.38
person404,0.6811447344048595,0.49,0.37,0.7,0.69,0.38,0.01,0.4
person405,0.45188869285201544,0.53,0.17,0.53,0.5,0.34,0.0,0.37
person406,0.6606059445022561,0.47,0.3,0.62,0.59,0.63,0.25,0.22
person407,0.4901191075685359,0.59,0.39,0.87,0.47,0.48,0.26,0.26
person408,0.6657186489645398,0.44,0.25,0.52,0.49,0.5,0.07,0.43
person409,0.6644232709011114,0.56,0.4,0.65,0.37,0.41,0.36,0.48
person410,0.38380461901731544,0.43,0.24,0.89,0.4,0.41,0.36,0.27
person411,0.5109051484463859,0.58,0.14,0.82,0.31,0.47,0.05,0.33
person412,0.46699232007784586,0.47,0.22,0.87,0.36,0.31,0.26,0.55
person413,0.6213657867783496,0.32,0.45,0.85,0.37,0.7,0.0,0.32
person414,0.3784540621508405,0.4,0.13,0.73,0.61,0.54,0.03,0.32
person415,0.5797488576384836,0.37,0.13,0.7,0.34,0.3,0.17,0.21
person416,0.4922103206938979,0.43,0.15,0.72,0.55,0.48,0.35,0.58
person417,0.6102755623486089,0.61,0.49,0.69,0.5,0.58,0.08,0.28
person418,0.3780044775338827,0.31,0.38,0.55,0.36,0.63,0.1,0.31
person419,0.49885139172644927,0.48,0.12,0.84,0.68,0.53,0.15,0.39
person420,0.49091046792674153,0.48,0.13,0.64,0.45,0.7,0.11,0.32
person421,0.5345746138852099,0.31,0.39,0.87,0.44,0.32,0.1,0.47
person422,0.5334623399126194,0.48,0.12,0.62,0.37,0.61,0.0,0.56
person423,0.6639868728972118,0.55,0.36,0.88,0.6,0.6,0.02,0.55
person424,0.43982599850824683,0.65,0.24,0.72,0.46,0.65,0.03,0.56
person425,0.4751329807182443,0.41,0.38,0.62,0.38,0.55,0.09,0.25
person426,0.48520972307461213,0.36,0.33,0.76,0.49,0.66,0.39,0.52
person427,0.4030348995473702,0.39,0.39,0.79,0.68,0.48,0.18,0.46
person428,0.6483480615028617,0.53,0.49,0.5,0.58,0.34,0.05,0.53
person429,0.5328010375540531,0.67,0.4,0.84,0.48,0.4,0.14,0.59
person430,0.5981053100674601,0.45,0.36,0.77,0.42,0.53,0.24,0.29
person431,0.41202240180142735,0.64,0.12,0.69,0.37,0.45,0.31,0.39
person432,0.6377854264576126,0.46,0.35,0.7,0.35,0.44,0.09,0.54
person433,0.5781293694754656,0.54,0.46,0.79,0.59,0.31,0.33,0.54
person434,0.5871583112535383,0.43,0.32,0.65,0.64,0.32,0.36,0.35
person435,0.6214465995453449,0.34,0.38,0.74,0.31,0.55,0.21,0.58
person436,0.5137550556469229,0.62,0.45,0.78,0.35,0.38,0.0,0.37
person437,0.6342893984292444,0.36,0.17,0.65,0.65,0.66,0.04,0.44
person438,0.5912533894339198,0.32,0.13,0.8,0.37,0.38,0.35,0.31
person439,0.3683935221469014,0.63,0.47,0.71,0.44,0.48,0.02,0.54
person440,0.6551087569614682,0.36,0.17,0.82,0.33,0.34,0.29,0.6
person441,0.386998079353035,0.45,0.41,0.7,0.58,0.34,0.32,0.21
person442,0.6628921561198228,0.37,0.12,0.76,0.66,0.61,0.15,0.44
person443,0.5639274984559823,0.33,0.45,0.85,0.37,0.7,0.0,0.32
person444,0.5365344196031079,0.59,0.32,0.51,0.4,0.33,0.22,0.5
person445,0.5998984666303727,0.42,0.18,0.75,0.39,0.35,0.22,0.26
person446,0.42545915976300747,0.42,0.14,0.72,0.55,0.47,0.34,0.58
person447,0.5823175905096135,0.62,0.11,0.71,0.51,0.6,0.1,0.3
person448,0.4533855123756598,0.43,0.11,0.67,0.48,0.35,0.22,0.43
person449,0.3876773699967434,0.38,0.42,0.75,0.59,0.43,0.06,0.3
person450,0.7234150424626947,0.65,0.3,0.81,0.62,0.47,0.28,0.48
person451,0.6299556581285636,0.42,0.1,0.59,0.55,0.43,0.22,0.58
person452,0.748831724616428,0.62,0.26,0.75,0.5,0.35,0.14,0.29
person453,0.5484757769489977,0.39,0.2,0.72,0.44,0.45,0.27,0.39
person454,0.41942523361927647,0.67,0.26,0.75,0.48,0.67,0.06,0.59
person455,0.39126321589214247,0.3,0.27,0.51,0.67,0.44,0.38,0.54
person456,0.6789136499708894,0.59,0.16,0.6,0.32,0.49,0.22,0.35
person457,0.6366858158323666,0.64,0.24,0.65,0.53,0.33,0.04,0.32
person458,0.6573175731678437,0.49,0.46,0.87,0.54,0.3,0.01,0.49
person459,0.5503608844887021,0.42,0.14,0.58,0.63,0.55,0.29,0.33
person460,0.5932191417387543,0.46,0.37,0.78,0.43,0.54,0.24,0.3
person461,0.34126649514297913,0.59,0.48,0.64,0.32,0.4,0.27,0.35
person462,0.6055790846593176,0.44,0.33,0.68,0.33,0.42,0.07,0.51
person463,0.6461274498873303,0.62,0.14,0.87,0.67,0.39,0.02,0.22
person464,0.5775023235148836,0.7,0.18,0.51,0.5,0.59,0.22,0.21
person465,0.3471401275142023,0.47,0.11,0.87,0.44,0.68,0.34,0.3
person466,0.5937182875649241,0.69,0.12,0.85,0.42,0.45,0.08,0.45
person467,0.8184578182555163,0.46,0.27,0.75,0.35,0.35,0.14,0.54
person468,0.4143792267500919,0.52,0.33,0.6,0.57,0.58,0.15,0.52
person469,0.6754572678504712,0.61,0.45,0.7,0.42,0.46,0.01,0.53
person470,0.49872607285358156,0.61,0.42,0.67,0.58,0.59,0.14,0.45
person471,0.5778394663875386,0.64,0.21,0.89,0.37,0.54,0.12,0.4
person472,0.5528443754985228,0.59,0.34,0.58,0.47,0.43,0.37,0.26
person473,0.5055832818986321,0.65,0.37,0.77,0.69,0.62,0.32,0.24
person474,0.6702402303741803,0.69,0.43,0.62,0.5,0.43,0.33,0.21
person475,0.5569936937628663,0.39,0.15,0.72,0.36,0.32,0.19,0.23
person476,0.3547914361666552,0.33,0.46,0.63,0.46,0.39,0.26,0.49
person477,0.5736285266547646,0.56,0.45,0.65,0.45,0.53,0.03,0.24
person478,0.5468004650371915,0.47,0.15,0.71,0.52,0.4,0.26,0.47
person479,0.6063742442178212,0.61,0.25,0.57,0.41,0.66,0.28,0.52
person480,0.38753046556101195,0.34,0.39,0.5,0.31,0.56,0.37,0.57
person481,0.6338636016185738,0.46,0.14,0.62,0.58,0.46,0.25,0.21
person482,0.4626314630069951,0.67,0.32,0.81,0.56,0.41,0.2,0.35
person483,0.6134605109663834,0.56,0.36,0.88,0.6,0.61,0.03,0.55
person484,0.7241538558408116,0.62,0.21,0.69,0.43,0.62,0.0,0.53
person485,0.5125308902680279,0.51,0.48,0.72,0.48,0.65,0.19,0.35
person486,0.47383917536069303,0.35,0.32,0.75,0.47,0.64,0.38,0.5
person487,0.39766662149103926,0.42,0.42,0.83,0.31,0.51,0.21,0.5
person488,0.5632750005472449,0.37,0.34,0.75,0.42,0.58,0.3,0.37
person489,0.6530121239795782,0.48,0.21,0.65,0.69,0.61,0.35,0.4
person490,0.5292849896853034,0.39,0.3,0.71,0.36,0.47,0.17,0.23
person491,0.6232644827768791,0.47,0.35,0.51,0.59,0.68,0.14,0.22
person492,0.5429974836983764,0.33,0.23,0.58,0.62,0.31,0.37,0.41
person493,0.6190393891646571,0.62,0.14,0.87,0.67,0.39,0.02,0.22
person494,0.6521779561691986,0.48,0.37,0.7,0.69,0.37,0.01,0.4
person495,0.3569415319686036,0.52,0.16,0.52,0.49,0.33,0.39,0.35
person496,0.5631349314405202,0.69,0.12,0.84,0.41,0.45,0.07,0.44
person497,0.7396492929769733,0.48,0.28,0.77,0.37,0.37,0.15,0.55
person498,0.5387800730220146,0.64,0.45,0.72,0.69,0.7,0.27,0.24
person499,0.5933479695584493,0.52,0.36,0.6,0.33,0.37,0.31,0.43
person500,0.6240776310686365,0.38,0.19,0.84,0.35,0.35,0.31,0.22
person501,0.6801277887093268,0.36,0.32,0.6,0.49,0.65,0.23,0.51
person502,0.6629683954059442,0.32,0.47,0.72,0.61,0.56,0.11,0.4
person503,0.4435486634671521,0.49,0.21,0.62,0.54,0.46,0.16,0.48
person504,0.6748168784345776,0.32,0.45,0.64,0.53,0.46,0.35,0.24
person505,0.466789570857498,0.68,0.44,0.61,0.65,0.61,0.07,0.52
person506,0.5273147964664022,0.57,0.29,0.86,0.69,0.62,0.09,0.32
person507,0.4655988153354613,0.42,0.3,0.5,0.31,0.39,0.29,0.5
person508,0.5091076930702431,0.44,0.11,0.67,0.48,0.36,0.22,0.43
person509,0.36597094451874257,0.35,0.4,0.72,0.56,0.4,0.03,0.27
person510,0.39369996278366026,0.35,0.4,0.51,0.31,0.57,0.38,0.58
person511,0.6098047356047499,0.41,0.49,0.57,0.54,0.42,0.2,0.57
person512,0.6365576187814739,0.65,0.3,0.79,0.54,0.38,0.17,0.33
person513,0.40324880330535035,0.64,0.44,0.56,0.69,0.69,0.11,0.23
person514,0.5835067731467241,0.48,0.47,0.56,0.69,0.48,0.27,0.4
person515,0.6499403190038475,0.64,0.21,0.85,0.61,0.37,0.32,0.48
person516,0.5764066013467927,0.42,0.39,0.82,0.55,0.32,0.05,0.58
person517,0.4861297273447011,0.52,0.12,0.52,0.41,0.61,0.31,0.59
person518,0.34117533053168614,0.57,0.14,0.55,0.62,0.39,0.1,0.57
person519,0.6813233524949024,0.47,0.19,0.63,0.68,0.6,0.34,0.38
person520,0.40072054677345226,0.64,0.15,0.56,0.61,0.32,0.02,0.47
person521,0.4454872632619124,0.66,0.14,0.71,0.39,0.47,0.33,0.41
person522,0.4173545714457523,0.55,0.44,0.8,0.44,0.53,0.18,0.23
person523,0.579018802439141,0.54,0.46,0.79,0.59,0.31,0.34,0.54
person524,0.4855822956075117,0.59,0.47,0.8,0.4,0.48,0.11,0.5
person525,0.36510455616635945,0.49,0.13,0.89,0.46,0.7,0.36,0.32
person526,0.44333981951437906,0.6,0.43,0.76,0.33,0.36,0.38,0.35
person527,0.6843336289954236,0.42,0.22,0.7,0.3,0.31,0.09,0.49
person528,0.5574876805338687,0.68,0.49,0.77,0.33,0.34,0.31,0.28
person529,0.5009264866929756,0.34,0.18,0.83,0.55,0.59,0.14,0.26
person530,0.39995133953630985,0.47,0.28,0.53,0.44,0.44,0.39,0.31
person531,0.38033731181970803,0.39,0.35,0.63,0.52,0.68,0.26,0.55
person532,0.6717057886210245,0.38,0.13,0.78,0.67,0.62,0.16,0.46
person533,0.5647321030404688,0.65,0.37,0.78,0.7,0.62,0.32,0.25
person534,0.6499907383595681,0.66,0.4,0.59,0.47,0.4,0.3,0.58
person535,0.7134861954499802,0.49,0.25,0.82,0.46,0.42,0.28,0.33
person536,0.676447272495909,0.32,0.44,0.61,0.45,0.37,0.24,0.47
person537,0.6326235392433779,0.6,0.48,0.68,0.48,0.57,0.07,0.27
person538,0.320629146380186,0.32,0.39,0.55,0.37,0.64,0.1,0.31
person539,0.4190619484227998,0.42,0.46,0.78,0.62,0.47,0.09,0.33
person540,0.6618048772709122,0.68,0.33,0.84,0.64,0.5,0.31,0.51
person541,0.592139033118102,0.68,0.36,0.85,0.41,0.69,0.08,0.44
person542,0.5562663095638234,0.55,0.19,0.68,0.44,0.68,0.07,0.22
person543,0.32272102800247787,0.64,0.44,0.56,0.69,0.69,0.11,0.23
person544,0.3841764355894117,0.67,0.26,0.74,0.48,0.67,0.05,0.58
person545,0.41454302306712704,0.69,0.26,0.9,0.66,0.42,0.37,0.53
person546,0.5910565249741084,0.41,0.38,0.82,0.54,0.31,0.04,0.57
person547,0.4743760211725325,0.54,0.14,0.54,0.42,0.62,0.33,0.21
person548,0.4144999641555564,0.69,0.26,0.67,0.34,0.51,0.22,0.29
person549,0.5647661796837743,0.37,0.5,0.54,0.58,0.5,0.24,0.29
person550,0.6343683787008021,0.41,0.32,0.72,0.38,0.49,0.19,0.24
person551,0.5173301429749773,0.37,0.26,0.82,0.5,0.58,0.05,0.53
person552,0.45971046766569157,0.69,0.18,0.53,0.58,0.67,0.32,0.37
person553,0.42857908874020667,0.39,0.31,0.63,0.43,0.55,0.18,0.38
person554,0.4694988122969816,0.61,0.5,0.83,0.42,0.51,0.14,0.53
person555,0.6060972497477609,0.38,0.42,0.78,0.34,0.59,0.25,0.21
person556,0.7037365568017333,0.43,0.26,0.59,0.56,0.59,0.22,0.59
person557,0.5084212539322629,0.67,0.48,0.56,0.56,0.57,0.35,0.35
person558,0.5716156025202827,0.64,0.45,0.73,0.69,0.3,0.27,0.24
person559,0.591408683352538,0.49,0.33,0.57,0.7,0.34,0.28,0.4
person560,0.4324387133436598,0.48,0.28,0.54,0.45,0.45,0.0,0.32
person561,0.5994874746118856,0.34,0.31,0.59,0.47,0.64,0.22,0.5
person562,0.6775164454138043,0.36,0.11,0.75,0.64,0.6,0.14,0.43
person563,0.6577205035210956,0.33,0.46,0.86,0.38,0.3,0.01,0.33
person564,0.4649614422445938,0.53,0.26,0.85,0.34,0.67,0.16,0.45
person565,0.4184439560265093,0.62,0.38,0.54,0.59,0.55,0.01,0.46
person566,0.425897209501791,0.39,0.12,0.69,0.52,0.45,0.32,0.55
person567,0.6697961737245158,0.69,0.18,0.78,0.58,0.66,0.17,0.37
person568,0.5503769563480048,0.52,0.19,0.76,0.57,0.44,0.3,0.51
person569,0.44973878344745344,0.4,0.45,0.77,0.61,0.45,0.08,0.32
person570,0.519430789499315,0.53,0.18,0.69,0.49,0.34,0.16,0.36
person571,0.3466438570987263,0.48,0.16,0.64,0.6,0.48,0.27,0.23
person572,0.42890636834926293,0.37,0.41,0.5,0.65,0.5,0.29,0.44
person573,0.6729179561746982,0.56,0.36,0.88,0.61,0.61,0.03,0.56
person574,0.48029324581348753,0.37,0.37,0.85,0.58,0.37,0.16,0.29
person575,0.4273636240798526,0.66,0.23,0.87,0.63,0.39,0.34,0.5
person576,0.4614888555864286,0.33,0.3,0.73,0.45,0.62,0.36,0.48
person577,0.4578788200406338,0.47,0.47,0.88,0.36,0.56,0.27,0.55
person578,0.49896216922069186,0.34,0.3,0.71,0.38,0.55,0.26,0.33
person579,0.37610002093768746,0.6,0.32,0.76,0.41,0.33,0.07,0.51
person580,0.6819470043894564,0.5,0.41,0.81,0.46,0.58,0.28,0.33
person581,0.546004048090754,0.4,0.29,0.85,0.53,0.62,0.08,0.56
person582,0.520456972628422,0.35,0.24,0.59,0.63,0.33,0.38,0.42
person583,0.5400781940738353,0.55,0.47,0.79,0.59,0.32,0.34,0.54
person584,0.3945600076848821,0.56,0.44,0.77,0.37,0.45,0.08,0.47
person585,0.4193634084154614,0.59,0.23,0.59,0.55,0.4,0.06,0.42
person586,0.4343470963930576,0.58,0.42,0.74,0.31,0.34,0.37,0.34
person587,0.6801714284971334,0.45,0.25,0.74,0.34,0.34,0.13,0.53
person588,0.4674894897461674,0.52,0.34,0.61,0.57,0.58,0.16,0.52
person589,0.6410742878516521,0.55,0.39,0.64,0.36,0.4,0.35,0.47
person590,0.6486792517167339,0.41,0.21,0.87,0.38,0.38,0.33,0.25
person591,0.5194593168077475,0.62,0.18,0.86,0.35,0.51,0.09,0.37
person592,0.5419322948541011,0.65,0.41,0.65,0.54,0.49,0.04,0.33
person593,0.6607296887914712,0.33,0.46,0.86,0.38,0.3,0.01,0.33
person594,0.6244254304573157,0.31,0.45,0.64,0.52,0.45,0.35,0.23
person595,0.5065323208996585,0.67,0.43,0.59,0.64,0.6,0.06,0.5
person596,0.42910472921277115,0.39,0.11,0.68,0.51,0.44,0.31,0.54
person597,0.39384249293795504,0.31,0.19,0.79,0.6,0.68,0.18,0.39
person598,0.6168641261664782,0.64,0.31,0.88,0.69,0.56,0.02,0.24
person599,0.6355016706803504,0.31,0.35,0.67,0.51,0.36,0.38,0.22
person600,0.6949885302587719,0.69,0.35,0.86,0.66,0.51,0.33,0.53
person601,0.45885952735620894,0.59,0.27,0.75,0.32,0.6,0.38,0.35
person602,0.5597662937193522,0.5,0.15,0.64,0.39,0.64,0.03,0.58
person603,0.45770555083123754,0.4,0.2,0.72,0.45,0.45,0.27,0.4
person604,0.5041440311449981,0.4,0.39,0.88,0.61,0.4,0.18,0.31
person605,0.6256993076944473,0.55,0.11,0.76,0.52,0.68,0.23,0.39
person606,0.660017936016978,0.56,0.13,0.56,0.69,0.46,0.19,0.31
person607,0.6038715802927233,0.33,0.33,0.74,0.62,0.42,0.12,0.41
person608,0.4299138272869668,0.7,0.26,0.67,0.34,0.51,0.22,0.29
person609,0.4948495139527901,0.34,0.47,0.51,0.55,0.47,0.21,0.26
person610,0.6288098617785672,0.51,0.42,0.82,0.47,0.59,0.29,0.34
person611,0.5171341785422229,0.36,0.24,0.81,0.49,0.57,0.03,0.51
person612,0.5371282738643129,0.32,0.21,0.57,0.61,0.3,0.35,0.4
person613,0.6175693563701997,0.63,0.15,0.87,0.68,0.4,0.02,0.22
person614,0.605536640601885,0.42,0.31,0.64,0.63,0.32,0.35,0.34
person615,0.5897424345519751,0.31,0.36,0.72,0.68,0.53,0.19,0.55
person616,0.5670815715781918,0.66,0.49,0.82,0.39,0.42,0.04,0.41
person617,0.43898742949160047,0.55,0.35,0.83,0.44,0.44,0.22,0.22
person618,0.6238186830106995,0.33,0.14,0.81,0.37,0.38,0.36,0.32
person619,0.5868850144310059,0.54,0.38,0.62,0.35,0.39,0.33,0.45
person620,0.6301672696831309,0.66,0.46,0.71,0.63,0.63,0.18,0.49
person621,0.3469946193915272,0.41,0.37,0.65,0.54,0.3,0.28,0.57
person622,0.4311606712970748,0.47,0.22,0.87,0.36,0.31,0.26,0.55
person623,0.5220318517125371,0.65,0.38,0.78,0.3,0.63,0.33,0.25
person624,0.41860144788503767,0.42,0.15,0.74,0.63,0.56,0.05,0.34
person625,0.46810903994789094,0.64,0.4,0.56,0.61,0.57,0.03,0.47
person626,0.6328107990773852,0.7,0.42,0.59,0.43,0.35,0.22,0.45
person627,0.8051095998812717,0.65,0.13,0.73,0.54,0.62,0.12,0.32
person628,0.7978554516730075,0.68,0.35,0.52,0.33,0.6,0.07,0.28
person629,0.7428838693454441,0.53,0.18,0.9,0.34,0.58,0.21,0.45
person630,0.5912063284989972,0.38,0.43,0.55,0.35,0.6,0.01,0.22
person631,0.5459261354849024,0.62,0.3,0.79,0.35,0.63,0.02,0.38
person632,0.5924045792467354,0.56,0.2,0.7,0.45,0.69,0.08,0.24
person633,0.6184696530151615,0.56,0.36,0.89,0.61,0.61,0.03,0.56
person634,0.48146446274758703,0.34,0.34,0.82,0.55,0.34,0.13,0.26
person635,0.5318392551627316,0.36,0.32,0.57,0.33,0.49,0.03,0.59
person636,0.5067855312062929,0.31,0.28,0.71,0.44,0.61,0.34,0.47
person637,0.4815058316016589,0.51,0.11,0.51,0.4,0.6,0.3,0.58
person638,0.4090732297516349,0.58,0.14,0.55,0.63,0.39,0.1,0.57
person639,0.5422107974326947,0.41,0.13,0.57,0.62,0.54,0.28,0.32
person640,0.6065681250597147,0.44,0.35,0.75,0.4,0.52,0.22,0.27
person641,0.43846873630121813,0.63,0.12,0.68,0.36,0.44,0.31,0.39
person642,0.45804028639668837,0.62,0.11,0.86,0.51,0.6,0.25,0.3
person643,0.6736751745430634,0.63,0.15,0.87,0.68,0.4,0.02,0.23
person644,0.4736031898374852,0.61,0.49,0.82,0.42,0.5,0.13,0.52
person645,0.6346635839379322,0.36,0.41,0.77,0.33,0.57,0.24,0.6
person646,0.505989990268808,0.65,0.48,0.81,0.38,0.41,0.04,0.41
person647,0.4616715599781391,0.56,0.37,0.85,0.45,0.46,0.24,0.24
person648,0.8102989752725344,0.45,0.26,0.53,0.49,0.51,0.08,0.44
person649,0.5199816244004054,0.44,0.28,0.53,0.65,0.69,0.24,0.36
person650,0.3487328152357622,0.43,0.23,0.88,0.4,0.4,0.35,0.26
person651,0.5036877413020059,0.52,0.49,0.77,0.65,0.42,0.4,0.28
person652,0.49218520121851367,0.61,0.36,0.61,0.5,0.45,0.39,0.28
person653,0.4054394303718274,0.49,0.22,0.62,0.54,0.47,0.17,0.49
person654,0.41893409083352057,0.45,0.18,0.77,0.65,0.58,0.08,0.36
person655,0.6487684324900247,0.53,0.29,0.85,0.5,0.46,0.32,0.36
person656,0.5838138982696595,0.53,0.26,0.83,0.66,0.58,0.06,0.29
person657,0.5070687448624404,0.51,0.39,0.59,0.39,0.48,0.38,0.58
person658,0.6362092827358893,0.64,0.31,0.88,0.69,0.56,0.03,0.24
person659,0.6305365251591027,0.68,0.32,0.64,0.48,0.33,0.35,0.59
person660,0.4514773522969334,0.39,0.44,0.56,0.36,0.61,0.02,0.23
person661,0.4873207686738963,0.58,0.26,0.74,0.3,0.58,0.37,0.33
person662,0.5890055685469061,0.54,0.18,0.67,0.42,0.67,0.06,0.21
person663,0.3663038517282446,0.64,0.45,0.57,0.69,0.69,0.11,0.24
person664,0.7117470374197543,0.61,0.2,0.69,0.42,0.61,0.39,0.52
person665,0.5667997945904654,0.49,0.45,0.7,0.46,0.62,0.16,0.32
person666,0.5375406104710634,0.39,0.36,0.79,0.51,0.68,0.02,0.54
person667,0.5063480365823491,0.6,0.21,0.61,0.49,0.69,0.4,0.28
person668,0.5604192674928188,0.38,0.34,0.75,0.43,0.59,0.3,0.37
person669,0.5404018068571064,0.39,0.12,0.56,0.6,0.52,0.27,0.31
person670,0.4685910972718055,0.68,0.2,0.6,0.65,0.36,0.07,0.52
person671,0.6246462097282443,0.42,0.31,0.87,0.55,0.64,0.1,0.58
person672,0.617038740865581,0.44,0.33,0.68,0.33,0.42,0.07,0.51
person673,0.5611622447603941,0.55,0.47,0.8,0.6,0.32,0.34,0.55
person674,0.5086684858420955,0.31,0.2,0.53,0.52,0.61,0.24,0.23
person675,0.6262091629727081,0.33,0.38,0.74,0.3,0.54,0.2,0.57
person676,0.42775633937989566,0.56,0.4,0.72,0.69,0.32,0.35,0.32
person677,0.3878270174378609,0.5,0.31,0.79,0.39,0.39,0.18,0.58
person678,0.40245294857069974,0.49,0.3,0.57,0.54,0.55,0.12,0.48
person679,0.3767597239056182,0.67,0.11,0.75,0.48,0.52,0.06,0.59
person680,0.4129425624992708,0.52,0.32,0.57,0.48,0.49,0.04,0.35
person681,0.5221416424619515,0.56,0.12,0.8,0.69,0.45,0.03,0.31
person682,0.5670297867372758,0.67,0.42,0.66,0.55,0.51,0.05,0.34
person683,0.5239364695940865,0.66,0.38,0.78,0.3,0.63,0.33,0.25
person684,0.3555014253365386,0.39,0.12,0.71,0.6,0.53,0.02,0.31
person685,0.4733895232671889,0.34,0.5,0.66,0.3,0.66,0.13,0.57
person686,0.6887935643213168,0.68,0.41,0.58,0.41,0.34,0.21,0.44
person687,0.6626531475415912,0.68,0.17,0.77,0.57,0.65,0.15,0.36
person688,0.5813324776373574,0.52,0.2,0.76,0.57,0.44,0.31,0.52
person689,0.3553374480785824,0.34,0.39,0.71,0.55,0.39,0.02,0.26
person690,0.4110247119633487,0.32,0.37,0.89,0.69,0.54,0.35,0.56
person691,0.608284025906614,0.45,0.13,0.61,0.58,0.46,0.24,0.2
person692,0.5527849447341335,0.43,0.48,0.57,0.32,0.57,0.36,0.51
person693,0.36710234316653,0.64,0.45,0.57,0.69,0.7,0.12,0.24
person694,0.5439255884632781,0.39,0.39,0.87,0.6,0.39,0.18,0.31
person695,0.5888297317340407,0.54,0.1,0.74,0.51,0.67,0.21,0.37
person696,0.5021592713443298,0.38,0.35,0.78,0.51,0.68,0.01,0.53
person697,0.5993339505171844,0.62,0.22,0.63,0.51,0.31,0.01,0.3
person698,0.5951338556325599,0.5,0.46,0.88,0.55,0.31,0.02,0.5
person699,0.4912126816889454,0.7,0.42,0.86,0.51,0.43,0.17,0.21
person700,0.5692052777003802,0.45,0.37,0.77,0.42,0.53,0.24,0.29
person701,0.6613113418522292,0.54,0.42,0.59,0.67,0.35,0.21,0.29
person702,0.4164506111300149,0.58,0.47,0.82,0.46,0.55,0.21,0.25
person703,0.4201418872266027,0.39,0.31,0.64,0.44,0.56,0.18,0.39
person704,0.5807392270427091,0.34,0.22,0.55,0.55,0.63,0.26,0.25
person705,0.4893438453747221,0.62,0.27,0.63,0.59,0.43,0.09,0.46
person706,0.5711255261661378,0.4,0.23,0.55,0.53,0.56,0.18,0.55
person707,0.5445391567579696,0.36,0.16,0.65,0.65,0.65,0.03,0.43
person708,0.6860734277748702,0.45,0.26,0.53,0.5,0.51,0.08,0.45
person709,0.5507994983330023,0.41,0.25,0.9,0.62,0.66,0.21,0.33
person710,0.4539615017940977,0.53,0.33,0.58,0.49,0.5,0.05,0.36
person711,0.4561050010777097,0.51,0.47,0.75,0.64,0.4,0.38,0.27
person712,0.5956927478771041,0.64,0.39,0.64,0.53,0.48,0.03,0.32
person713,0.6056146014540092,0.34,0.46,0.86,0.38,0.31,0.01,0.33
person714,0.5999286314360086,0.66,0.39,0.58,0.46,0.39,0.29,0.57
person715,0.7010622297828166,0.47,0.23,0.79,0.43,0.39,0.26,0.3
person716,0.37653869210828345,0.36,0.48,0.65,0.49,0.41,0.28,0.51
person717,0.41697945658590463,0.38,0.26,0.86,0.67,0.35,0.25,0.46
person718,0.36417953269278597,0.32,0.4,0.56,0.37,0.64,0.11,0.32
person719,0.6008232712549646,0.33,0.37,0.69,0.54,0.38,0.0,0.24
person720,0.6107046231237603,0.57,0.22,0.73,0.54,0.39,0.2,0.41
person721,0.536917230633167,0.64,0.32,0.81,0.37,0.65,0.03,0.4
person722,0.7553157286775302,0.65,0.3,0.79,0.54,0.38,0.18,0.33
person723,0.5848337683456134,0.57,0.37,0.89,0.61,0.62,0.04,0.56
person724,0.591253917241632,0.5,0.49,0.58,0.31,0.5,0.28,0.42
person725,0.5331691989312084,0.51,0.47,0.71,0.47,0.64,0.18,0.34
person726,0.4245251940390393,0.69,0.26,0.69,0.42,0.59,0.32,0.45
person727,0.5020263966366899,0.56,0.16,0.56,0.45,0.65,0.35,0.24
person728,0.6518136982957007,0.54,0.11,0.52,0.59,0.35,0.06,0.54
person729,0.6635431015123802,0.52,0.25,0.69,0.33,0.66,0.4,0.44
person730,0.675068837202687,0.54,0.45,0.86,0.51,0.62,0.33,0.38
person731,0.6484537839401456,0.57,0.46,0.62,0.7,0.38,0.25,0.33
person732,0.4217732425489827,0.63,0.12,0.88,0.52,0.61,0.26,0.31
person733,0.5653033814438922,0.55,0.47,0.8,0.6,0.32,0.35,0.55
person734,0.6144997950363073,0.68,0.17,0.9,0.49,0.58,0.21,0.6
person735,0.6345552818585172,0.43,0.47,0.83,0.4,0.64,0.3,0.27
person736,0.41325589444314825,0.55,0.38,0.71,0.68,0.31,0.34,0.31
person737,0.4373781105873984,0.54,0.34,0.82,0.42,0.43,0.21,0.21
person738,0.5939835706226716,0.33,0.14,0.81,0.38,0.39,0.36,0.33
person739,0.5441547428799678,0.48,0.32,0.56,0.69,0.33,0.27,0.4
person740,0.4086210863348246,0.46,0.26,0.51,0.42,0.43,0.38,0.29
person741,0.6842798809397433,0.38,0.35,0.63,0.51,0.67,0.26,0.54
person742,0.47724441141742024,0.54,0.29,0.54,0.43,0.38,0.32,0.22
person743,0.6334167018115752,0.34,0.46,0.87,0.39,0.31,0.01,0.33
person744,0.37166680696136284,0.44,0.17,0.76,0.65,0.58,0.07,0.36
person745,0.6420929057664447,0.51,0.28,0.84,0.48,0.44,0.31,0.35
person746,0.3508655743015528,0.35,0.48,0.65,0.48,0.4,0.28,0.51
person747,0.44772034809664607,0.4,0.28,0.88,0.68,0.37,0.27,0.47
person748,0.4978729831499182,0.45,0.12,0.68,0.49,0.37,0.23,0.44
person749,0.5935923247110241,0.63,0.28,0.6,0.44,0.68,0.31,0.55
person750,0.9996248410929149,0.63,0.6,0.76,1.0,1.0,1.0,0.49
person751,0.8569522178066817,0.72,0.54,0.73,0.95,0.77,0.86,0.58
person752,0.9997267105439287,0.76,0.86,0.73,1.0,0.89,1.0,0.62
person753,1.0,0.97,0.59,0.7,0.8,0.82,0.83,0.43
person754,0.9992843193819932,0.92,0.78,0.78,0.95,0.81,1.0,0.78
person755,0.9996437695936495,0.8,0.7,1.0,1.0,0.93,1.0,0.66
person756,0.9436695022382405,0.98,0.54,0.7,1.0,0.97,1.0,0.44
person757,0.9998207463749716,0.94,0.76,0.95,1.0,0.99,1.0,0.8
person758,0.9240985575603854,0.63,0.73,1.0,1.0,0.76,0.93,0.49
person759,0.9949065501090777,0.99,0.61,0.73,0.82,0.84,0.86,0.45
person760,0.8467519390080714,0.71,0.56,0.97,1.0,0.99,0.9,0.57
person761,0.9237915479355635,0.69,0.59,0.9,0.92,0.82,1.0,0.55
person762,0.8543906841365414,0.82,0.79,0.95,0.85,0.82,0.88,0.68
person763,0.9784400623340784,0.92,0.74,0.93,1.0,0.97,1.0,0.78
person764,0.999340564935089,0.84,0.54,0.81,0.87,0.97,1.0,0.7
person765,0.8583481205199467,0.65,0.66,0.78,0.88,0.89,0.91,0.51
person766,0.999349658308186,0.94,0.8,0.8,0.97,0.83,1.0,0.8
person767,0.8039570566863359,0.96,0.86,0.77,1.0,1.0,0.9,0.42
person768,0.9035309726813368,0.9,0.87,1.0,0.93,0.9,0.96,0.76
person769,0.9563962488868754,0.91,0.73,0.92,1.0,0.96,1.0,0.77
person770,0.924230079061123,0.75,0.86,0.72,1.0,0.89,1.0,0.61
person771,0.9890455974147384,0.82,0.84,0.95,1.0,1.0,1.0,0.68
person772,0.9813521942310822,0.83,0.69,1.0,0.86,0.72,1.0,0.69
person773,0.999784571511071,0.75,0.64,0.96,0.98,0.87,1.0,0.61
person774,0.9894337836605919,0.68,0.65,0.8,1.0,1.0,1.0,0.54
person775,0.9995523310708859,0.69,0.51,0.7,0.92,0.74,0.83,0.55
person776,0.9997469092994482,0.87,0.58,0.84,0.9,1.0,1.0,0.73
person777,0.9154038411809067,0.74,0.75,0.87,0.97,0.98,1.0,0.6
person778,0.888609360629264,0.72,0.58,0.98,1.0,1.0,0.91,0.58
person779,0.9998212187001726,0.7,0.6,0.92,0.93,0.83,1.0,0.56
person780,0.9992419564311827,0.72,0.69,0.85,1.0,0.72,1.0,0.58
person781,0.8399123917554738,0.75,0.57,0.77,0.98,0.8,0.9,0.61
person782,0.9929267487601531,0.81,0.52,0.78,0.84,0.95,1.0,0.67
person783,0.9117707176974895,0.73,0.75,0.87,0.96,0.98,1.0,0.59
person784,0.96169674768761,0.86,0.72,0.73,0.89,0.75,1.0,0.72
person785,0.8524900011491544,0.61,0.51,0.82,0.84,0.74,0.95,0.47
person786,0.9987009316940931,0.73,0.7,0.86,1.0,0.73,1.0,0.59
person787,0.8208387389899029,0.72,0.53,0.73,0.95,0.76,0.86,0.58
person788,0.9999428409058189,0.91,0.62,0.88,0.94,1.0,0.81,0.77
person789,0.8864274096868422,0.66,0.67,0.79,0.89,0.9,0.92,0.52
person790,0.9999123670670738,0.64,0.89,0.9,1.0,0.92,0.83,0.5
person791,0.8064518402736791,0.96,0.86,0.78,1.0,1.0,0.91,0.42
person792,0.9905084619434595,0.72,0.69,0.84,1.0,0.72,1.0,0.58
person793,0.9996158924985085,0.92,0.74,0.93,1.0,0.97,1.0,0.78
person794,0.9640710395003365,0.62,0.73,0.99,1.0,0.76,0.92,0.48
person795,0.8713965438385075,0.69,0.71,0.83,0.92,0.94,0.96,0.55
person796,0.9999950096947836,0.93,0.79,0.8,0.96,0.82,1.0,0.79
person797,0.8623721013464027,0.98,0.87,0.79,0.81,0.7,0.92,0.44
person798,0.9907618751057039,0.63,0.59,0.75,1.0,1.0,1.0,0.49
person799,0.8792733729154291,0.81,0.63,0.83,1.0,0.86,0.96,0.67
person800,0.9998372014034704,0.92,0.63,0.89,0.95,1.0,0.82,0.78
person801,0.9996496293147175,0.94,0.55,1.0,1.0,0.78,1.0,0.8
person802,0.9999503060770903,0.97,0.83,0.83,1.0,0.86,1.0,0.43
person803,0.8632516579294622,0.99,0.88,0.8,0.82,0.71,0.93,0.45
person804,0.9846820997714466,0.7,0.67,0.83,1.0,0.7,1.0,0.56
person805,0.9999840599937585,0.98,0.79,0.99,0.81,1.0,1.0,0.44
person806,0.9490785971018099,0.7,0.81,1.0,1.0,0.84,1.0,0.56
person807,0.9995212819300345,1.0,0.61,0.73,0.83,0.84,0.86,0.46
person808,0.8005054729072935,0.68,0.54,0.95,1.0,0.97,0.88,0.54
person809,0.9910329407169313,0.85,0.75,1.0,1.0,0.98,1.0,0.71
person810,0.9990609000191566,0.73,0.7,0.86,1.0,0.73,1.0,0.59
person811,0.9999195400861887,0.7,0.52,0.72,0.93,0.75,0.85,0.56
person812,0.9996414235585414,0.79,0.89,0.76,0.82,0.92,1.0,0.65
person813,0.9929819043015735,0.81,0.83,0.95,1.0,1.0,1.0,0.67
person814,0.8892740025692355,0.73,0.59,0.99,1.0,1.0,0.92,0.59
person815,0.9892361446850558,0.74,0.64,0.95,0.97,0.87,1.0,0.6
person816,0.9996724540517918,0.8,0.77,0.93,0.83,0.8,0.86,0.66
person817,0.903897488287983,0.81,0.63,0.83,1.0,0.86,0.96,0.67
person818,0.9451155549570519,0.71,0.82,1.0,1.0,0.85,1.0,0.57
person819,0.8522986928291374,0.64,0.66,0.78,0.87,0.89,0.91,0.5
person820,0.9991531649338401,0.88,0.74,0.75,0.91,0.77,1.0,0.74
person821,0.9902084540072706,0.76,0.65,0.97,0.99,0.88,1.0,0.62
person822,0.9125049840831841,0.94,0.5,1.0,0.97,0.93,0.99,0.8
person823,0.9446605959586635,0.84,0.66,0.85,1.0,0.89,0.98,0.7
person824,0.9995765046718768,0.73,0.83,1.0,1.0,0.86,1.0,0.59
person825,0.8897154047266285,0.66,0.68,0.8,0.89,0.91,0.93,0.52
person826,0.9291113400761668,0.84,0.7,0.71,0.87,0.73,1.0,0.7
person827,0.999144597535965,0.91,0.81,0.73,1.0,1.0,0.86,0.77
person828,1.0,0.67,0.63,0.79,1.0,1.0,1.0,0.53
person829,0.9994282457939662,0.64,0.86,1.0,0.87,1.0,1.0,0.5
person830,0.8724450436475963,0.61,0.71,0.98,1.0,0.74,0.91,0.47
person831,0.9969894478351952,0.97,0.58,0.7,1.0,0.81,0.83,0.43
person832,0.999999981539626,0.63,0.88,0.89,1.0,0.91,0.82,0.49
person833,0.9996543666976104,0.75,0.64,0.96,0.98,0.87,1.0,0.61
person834,0.9996976531517333,0.65,0.62,0.77,1.0,1.0,1.0,0.51
person835,0.831924748099131,0.78,0.6,0.8,1.0,0.83,0.93,0.64
person836,0.9948521985358433,0.86,0.56,0.83,0.89,0.99,1.0,0.72
person837,0.9752016231356226,0.77,0.79,0.91,1.0,1.0,1.0,0.63
person838,0.9994090505139233,0.96,0.82,0.83,0.99,0.85,1.0,0.42
person839,0.9994978131027762,0.91,0.81,0.73,1.0,1.0,0.86,0.77
person840,0.9992587700099692,0.66,0.63,0.79,1.0,1.0,1.0,0.52
person841,0.9947837796093624,0.98,0.8,0.99,0.81,1.0,1.0,0.44
person842,0.9128355960898662,0.69,0.79,1.0,1.0,0.82,0.99,0.55
person843,0.9999741594303829,0.82,0.83,0.95,1.0,1.0,1.0,0.68
person844,0.9986498728309797,0.91,0.77,0.78,0.94,0.8,1.0,0.77
person845,0.9995322319586883,0.79,0.69,1.0,1.0,0.92,1.0,0.65
person846,0.9983706486388824,0.8,0.76,0.92,0.83,0.79,0.85,0.66
person847,0.8854697247725329,0.83,0.65,0.85,1.0,0.88,0.98,0.69
person848,0.9986461416931136,0.83,0.54,0.8,0.86,0.97,1.0,0.69
person849,0.9848645515304731,0.95,0.56,1.0,1.0,0.79,0.81,0.41
person850,0.9991546815287727,0.65,0.51,0.92,1.0,0.94,0.85,0.51
person851,0.9977997029176368,0.87,0.77,1.0,1.0,1.0,0.81,0.73
person852,0.9996782823220631,0.67,0.64,0.8,1.0,1.0,1.0,0.53
person853,0.9992370377072604,0.68,0.9,1.0,0.91,0.73,0.83,0.54
person854,0.9510639528293271,0.75,0.86,0.72,1.0,0.89,1.0,0.61
person855,0.9995301207807591,0.95,0.57,1.0,1.0,0.8,0.82,0.41
person856,0.7809612152907541,0.68,0.54,0.94,1.0,0.97,0.87,0.54
person857,0.9998978939864626,0.77,0.67,0.98,1.0,0.9,1.0,0.63
person858,0.9997471794220457,0.63,0.59,0.75,1.0,1.0,1.0,0.49
person859,0.9054733970463857,0.78,0.6,0.8,1.0,0.83,0.93,0.64
person860,0.8769243684174542,0.62,0.72,0.99,1.0,0.75,0.92,0.48
person861,0.9987718763562634,0.92,0.54,1.0,1.0,0.77,1.0,0.78
person862,0.9987000371898055,0.6,0.86,0.87,1.0,0.89,1.0,0.46
person863,0.999962705176844,0.83,0.73,1.0,1.0,0.96,1.0,0.69
person864,0.9547217080078442,0.91,0.88,1.0,0.94,0.91,0.97,0.77
person865,0.9924713256402103,0.91,0.73,0.93,1.0,0.96,1.0,0.77
person866,0.9998662385482217,0.93,0.64,0.9,0.96,1.0,0.83,0.79
person867,0.9999004799568071,0.87,0.89,1.0,1.0,0.72,1.0,0.73
person868,0.9418220724608736,0.76,0.62,1.0,1.0,1.0,0.96,0.62
person869,0.99955581286638,0.9,0.8,0.71,1.0,1.0,0.84,0.76
person870,0.8817056271094775,0.91,0.88,1.0,0.94,0.91,0.97,0.77
person871,0.8443547993025641,0.77,0.59,0.79,1.0,0.82,0.92,0.63
person872,0.9999995749071258,0.9,0.61,0.88,0.93,1.0,0.81,0.76
person873,0.9981076106924465,0.74,0.75,0.87,0.97,0.98,1.0,0.6
person874,0.9990630135148928,0.62,0.88,0.88,1.0,0.91,0.81,0.48
person875,0.9996814552168165,0.76,0.66,0.97,0.99,0.89,1.0,0.62
person876,0.9994866449625922,0.71,0.68,0.84,1.0,0.71,1.0,0.57
person877,0.8529282933480958,0.77,0.59,0.78,1.0,0.82,0.91,0.63
person878,0.9993578263020553,0.87,0.58,0.85,0.9,1.0,1.0,0.73
person879,0.9996299214898163,0.78,0.79,0.91,1.0,1.0,1.0,0.64
person880,0.9399502249172468,0.74,0.6,1.0,1.0,1.0,0.94,0.6
person881,1.0,0.9,0.8,0.71,1.0,1.0,0.84,0.76
person882,0.9992950564503359,0.73,0.7,0.86,1.0,0.73,1.0,0.59
person883,0.9791784555295364,0.84,0.66,0.86,1.0,0.89,0.99,0.7
person884,0.9794988904923344,0.7,0.8,1.0,1.0,0.83,1.0,0.56
person885,0.9226510400667565,0.76,0.78,0.9,0.99,1.0,1.0,0.62
person886,0.9998529596601511,0.83,0.69,1.0,0.86,0.72,1.0,0.69
person887,0.8691899565434902,0.95,0.85,0.76,1.0,1.0,0.89,0.41
person888,0.896254177973999,0.91,0.88,1.0,0.94,0.91,0.96,0.77
person889,0.9330844963823135,0.85,0.67,0.86,1.0,0.9,0.99,0.71
person890,0.9999681746446331,0.95,0.65,0.92,0.98,1.0,0.85,0.41
person891,0.98525686582094,0.79,0.81,0.93,1.0,1.0,1.0,0.65
person892,0.9994033273456252,0.9,0.76,0.76,0.93,0.79,1.0,0.76
person893,0.999902352806845,0.83,0.73,1.0,1.0,0.96,1.0,0.69
person894,0.9996949112963436,0.7,0.67,0.82,1.0,1.0,1.0,0.56
person895,0.9999648465377263,0.96,0.78,0.98,1.0,1.0,1.0,0.42
person896,0.9999210030515776,0.92,0.63,0.9,0.95,1.0,0.83,0.78
person897,0.999887746183382,0.89,0.5,1.0,1.0,0.73,1.0,0.75
person898,0.9770262823997855,0.89,0.74,0.75,0.92,0.77,1.0,0.75
person899,1.0,0.8,0.7,1.0,1.0,0.93,1.0,0.66
person900,0.9996483221243282,0.68,0.65,0.8,1.0,1.0,1.0,0.54
person901,0.999832016176842,0.88,0.7,0.9,1.0,0.93,1.0,0.74
person902,0.8878292364673996,0.64,0.75,1.0,1.0,0.78,0.94,0.5
person903,0.9898013808616547,0.98,0.59,0.71,0.81,0.82,0.84,0.44
person904,0.9997988115208855,0.64,0.5,0.91,1.0,0.93,0.84,0.5
person905,0.9779935338781482,0.65,0.55,0.86,0.88,0.78,0.99,0.51
person906,0.9469824746760908,0.94,0.51,1.0,0.97,0.94,1.0,0.4
person907,1.0,0.62,0.84,1.0,0.85,1.0,1.0,0.48
person908,1.0,0.84,0.54,0.81,0.87,0.97,1.0,0.7
person909,0.9895476095070913,0.92,0.53,1.0,1.0,0.76,1.0,0.78
person910,0.9445878688520488,0.75,0.61,1.0,1.0,1.0,0.95,0.61
person911,0.9996053935319898,0.86,0.75,1.0,1.0,0.98,1.0,0.72
person912,0.997339238807145,0.71,0.67,0.83,1.0,0.7,1.0,0.57
person913,0.9785585916085581,0.92,0.74,0.94,1.0,0.97,1.0,0.78
person914,0.8037917414469912,0.96,0.67,0.93,0.99,1.0,0.86,0.42
person915,0.99964189706541,0.89,0.51,1.0,1.0,0.74,1.0,0.75
person916,0.9992736862448921,0.9,0.76,0.77,0.93,0.79,1.0,0.76
person917,0.919866577376221,0.65,0.54,0.86,0.88,0.77,0.99,0.51
person918,0.9999857217157468,0.71,0.68,0.84,1.0,0.71,1.0,0.57
person919,0.9181235490882237,0.83,0.65,0.85,1.0,0.88,0.98,0.69
person920,0.9952015767211236,0.8,0.5,0.77,0.83,0.93,1.0,0.66
person921,0.9992260665605691,0.99,0.6,0.72,0.82,0.83,0.85,0.45
person922,0.9024862045721683,0.72,0.58,0.98,1.0,1.0,0.91,0.58
person923,0.9998297878278796,0.75,0.65,0.96,0.98,0.88,1.0,0.61
person924,0.7833700586906274,0.81,0.77,0.93,0.84,0.8,0.86,0.67
person925,0.9993236850692746,0.93,0.75,0.95,1.0,0.98,1.0,0.79
person926,0.9999500255842887,0.84,0.54,0.81,0.87,0.97,1.0,0.7
person927,0.9999805504953437,0.83,0.84,0.96,1.0,1.0,1.0,0.69
person928,0.9932163530279207,0.93,0.79,0.79,0.96,0.82,1.0,0.79
person929,0.8961797585881766,0.63,0.53,0.84,0.86,0.76,0.97,0.49
person930,0.9998524696673948,0.77,0.73,0.89,1.0,0.76,0.82,0.63
person931,0.9997297170099214,0.92,0.74,0.93,1.0,0.97,1.0,0.78
person932,0.9175433085630398,0.7,0.8,1.0,1.0,0.83,1.0,0.56
person933,0.9126934063477345,0.74,0.75,0.87,0.97,0.98,1.0,0.6
person934,0.999924013299922,0.99,0.85,0.85,1.0,0.88,1.0,0.45
person935,0.9997275030483392,0.86,0.75,1.0,1.0,0.98,1.0,0.72
person936,0.9999062668249938,0.7,0.66,0.82,1.0,1.0,1.0,0.56
person937,0.8786005892713974,0.8,0.62,0.82,1.0,0.85,0.95,0.66
person938,0.9626484463875419,0.72,0.82,1.0,1.0,0.85,1.0,0.58
person939,0.9990278437982805,0.99,0.6,0.72,0.82,0.83,0.85,0.45
person940,0.842958488660838,0.68,0.54,0.95,1.0,0.97,0.88,0.54
person941,0.9202497807094239,0.73,0.63,0.94,0.96,0.86,1.0,0.59
person942,0.9647505907277574,0.61,0.57,0.73,1.0,1.0,1.0,0.47
person943,0.9998650204574164,0.92,0.74,0.94,1.0,0.97,1.0,0.78
person944,0.9996245187441458,0.75,0.85,0.72,1.0,0.88,1.0,0.61
person945,0.9999421583716136,0.94,0.56,1.0,1.0,0.79,0.8,0.4
person946,0.9999513542842894,0.9,0.76,0.76,0.93,0.79,1.0,0.76
person947,0.9199664289498147,0.66,0.56,0.87,0.89,0.79,1.0,0.52
person948,0.872771584159476,0.83,0.8,0.96,0.86,0.83,0.89,0.69
person949,0.8101627252343995,0.74,0.56,0.75,0.97,0.79,0.88,0.6
person950,0.8463329208912519,0.97,0.67,0.94,1.0,0.7,0.87,0.43
person951,0.9332233499125974,0.7,0.72,0.83,0.93,0.95,0.96,0.56
person952,0.9630354437306835,0.85,0.71,0.72,0.88,0.74,1.0,0.71
person953,0.8390141455363164,0.99,0.89,0.8,0.82,0.72,0.93,0.45
person954,0.8181651870119749,0.83,0.8,0.96,0.86,0.83,0.89,0.69
person955,0.913428148892121,0.82,0.64,0.84,1.0,0.87,0.97,0.68
person956,0.9364858744543149,0.67,0.78,1.0,1.0,0.81,0.97,0.53
person957,0.8694672348784088,0.68,0.7,0.82,0.91,0.93,0.95,0.54
person958,0.9994818240238796,0.89,0.75,0.75,0.92,0.78,1.0,0.75
person959,0.9997556692959223,0.78,0.67,0.99,1.0,0.9,1.0,0.64
person960,0.9998454994840005,0.78,0.74,0.9,0.81,0.77,0.83,0.64
person961,0.9291285259319714,0.87,0.69,0.89,1.0,0.92,1.0,0.73
person962,0.9608641503463785,0.68,0.78,1.0,1.0,0.81,0.98,0.54
person963,0.9998955798900158,0.82,0.83,0.95,1.0,1.0,1.0,0.68
person964,0.9989901450000186,0.85,0.71,0.72,0.88,0.74,1.0,0.71
person965,0.8910061568328965,0.99,0.88,0.8,0.82,0.71,0.93,0.45
person966,0.999860352153656,0.77,0.74,0.9,0.8,0.77,0.83,0.63
person967,0.9720892569208137,0.9,0.72,0.91,1.0,0.95,1.0,0.76
person968,0.9995559410979751,0.92,0.62,0.89,0.95,1.0,0.82,0.78
person969,0.9975311599826001,0.97,0.59,0.7,0.8,0.82,0.83,0.43
person970,0.9997944374758806,0.93,0.79,0.79,0.96,0.82,1.0,0.79
person971,0.7971611547217273,0.92,0.82,0.73,1.0,1.0,0.86,0.78
person972,0.8044931530753453,0.82,0.79,0.95,0.85,0.82,0.88,0.68
person973,0.8685876096174757,0.84,0.66,0.86,1.0,0.89,0.99,0.7
person974,0.9998017194099212,0.85,0.56,0.82,0.88,0.99,1.0,0.71
person975,0.9994844951280945,0.91,0.52,1.0,1.0,0.75,1.0,0.77
person976,0.9249760301422787,0.81,0.67,1.0,0.84,1.0,1.0,0.67
person977,0.9269384688957252,1.0,0.9,0.81,0.83,0.73,0.94,0.46
person978,0.9988665163331414,0.87,0.84,1.0,0.9,0.87,0.93,0.73
person979,0.9999523122816374,0.96,0.78,0.98,1.0,1.0,1.0,0.42
person980,0.8670626301593392,0.66,0.76,1.0,1.0,0.79,0.96,0.52
person981,0.9312485640004533,0.73,0.75,0.87,0.96,0.98,1.0,0.59
person982,0.9985772435427669,0.91,0.77,0.78,0.94,0.8,1.0,0.77
person983,0.9999527876935139,0.75,0.65,0.97,0.98,0.88,1.0,0.61
person984,0.9996457340514568,0.78,0.74,0.9,0.81,0.77,0.83,0.64
person985,0.9986809249287317,0.63,0.85,1.0,0.86,1.0,1.0,0.49
person986,0.999901423525175,0.82,0.53,0.79,0.85,0.96,1.0,0.68
person987,0.9998153720677193,0.86,0.87,0.99,1.0,0.7,1.0,0.72
person988,0.9542416661281723,0.77,0.63,1.0,1.0,1.0,0.96,0.63
person989,1.0,0.84,0.74,1.0,1.0,0.97,1.0,0.7
person990,0.9998633560980748,0.71,0.67,0.83,1.0,0.7,1.0,0.57
person991,0.837260004506246,0.74,0.56,0.76,0.97,0.79,0.89,0.6
person992,0.8025972838161043,0.97,0.68,0.94,1.0,0.71,0.87,0.43
person993,0.9869775420573408,0.82,0.84,0.95,1.0,1.0,1.0,0.68
person994,0.9880645312082701,0.64,0.9,0.9,1.0,0.93,0.83,0.5
person995,0.9463478950036491,0.64,0.53,0.85,0.87,0.76,0.98,0.5
person996,0.9997067096869438,0.76,0.73,0.89,1.0,0.76,0.82,0.62
person997,0.9744065975962456,0.92,0.73,0.93,1.0,0.96,1.0,0.78
person998,0.8426231649218116,0.64,0.74,1.0,1.0,0.77,0.94,0.5
person999,0.9999157420795035,0.88,0.89,1.0,1.0,0.72,1.0,0.74
